{
    "response": {
        "status": "ok",
        "userTier": "developer",
        "total": 212877,
        "startIndex": 1,
        "pageSize": 10,
        "currentPage": 1,
        "pages": 21288,
        "orderBy": "relevance",
        "results": [
            {
                "id": "football/2022/may/30/lgbtq-football-fans-share-your-experiences-of-watching-or-playing-football",
                "type": "article",
                "sectionId": "football",
                "sectionName": "Football",
                "webPublicationDate": "2022-05-30T10:06:50Z",
                "webTitle": "LGBTQ+ football fans: share your experiences of watching or playing football",
                "webUrl": "https://www.theguardian.com/football/2022/may/30/lgbtq-football-fans-share-your-experiences-of-watching-or-playing-football",
                "apiUrl": "https://content.guardianapis.com/football/2022/may/30/lgbtq-football-fans-share-your-experiences-of-watching-or-playing-football",
                "isHosted": false,
                "pillarId": "pillar/sport",
                "pillarName": "Sport"
            },
            {
                "id": "football/live/2022/may/06/premier-league-title-tussle-continues-and-wsl-finale-football-countdown-live",
                "type": "liveblog",
                "sectionId": "football",
                "sectionName": "Football",
                "webPublicationDate": "2022-05-06T16:28:45Z",
                "webTitle": "Weekend football countdown – as it happened",
                "webUrl": "https://www.theguardian.com/football/live/2022/may/06/premier-league-title-tussle-continues-and-wsl-finale-football-countdown-live",
                "apiUrl": "https://content.guardianapis.com/football/live/2022/may/06/premier-league-title-tussle-continues-and-wsl-finale-football-countdown-live",
                "isHosted": false,
                "pillarId": "pillar/sport",
                "pillarName": "Sport"
            },
            {
                "id": "football/2022/may/23/hybrid-of-guardiola-and-klopp-tactics-now-dominate-european-club-football",
                "type": "article",
                "sectionId": "football",
                "sectionName": "Football",
                "webPublicationDate": "2022-05-23T16:00:39Z",
                "webTitle": "Guardiola-Klopp tactical hybrid now dominates European football | Jonathan Wilson",
                "webUrl": "https://www.theguardian.com/football/2022/may/23/hybrid-of-guardiola-and-klopp-tactics-now-dominate-european-club-football",
                "apiUrl": "https://content.guardianapis.com/football/2022/may/23/hybrid-of-guardiola-and-klopp-tactics-now-dominate-european-club-football",
                "isHosted": false,
                "pillarId": "pillar/sport",
                "pillarName": "Sport"
            },
            {
                "id": "football/2022/jun/01/goalkeepers-in-womens-football-and-what-is-fair-criticism",
                "type": "article",
                "sectionId": "football",
                "sectionName": "Football",
                "webPublicationDate": "2022-06-01T10:55:04Z",
                "webTitle": "Goalkeepers in women’s football – and what is fair criticism? ",
                "webUrl": "https://www.theguardian.com/football/2022/jun/01/goalkeepers-in-womens-football-and-what-is-fair-criticism",
                "apiUrl": "https://content.guardianapis.com/football/2022/jun/01/goalkeepers-in-womens-football-and-what-is-fair-criticism",
                "isHosted": false,
                "pillarId": "pillar/sport",
                "pillarName": "Sport"
            },
            {
                "id": "football/live/2022/may/13/fa-cup-finals-buildup-championship-playoffs-and-more-live",
                "type": "liveblog",
                "sectionId": "football",
                "sectionName": "Football",
                "webPublicationDate": "2022-05-13T16:04:50Z",
                "webTitle": "FA Cup final weekend football countdown – as it happened",
                "webUrl": "https://www.theguardian.com/football/live/2022/may/13/fa-cup-finals-buildup-championship-playoffs-and-more-live",
                "apiUrl": "https://content.guardianapis.com/football/live/2022/may/13/fa-cup-finals-buildup-championship-playoffs-and-more-live",
                "isHosted": false,
                "pillarId": "pillar/sport",
                "pillarName": "Sport"
            },
            {
                "id": "football/2022/jun/07/football-trials-can-be-a-brutal-experience-for-rejected-youngsters",
                "type": "article",
                "sectionId": "football",
                "sectionName": "Football",
                "webPublicationDate": "2022-06-07T16:21:48Z",
                "webTitle": "Football trials can be a brutal experience for rejected youngsters | Letter",
                "webUrl": "https://www.theguardian.com/football/2022/jun/07/football-trials-can-be-a-brutal-experience-for-rejected-youngsters",
                "apiUrl": "https://content.guardianapis.com/football/2022/jun/07/football-trials-can-be-a-brutal-experience-for-rejected-youngsters",
                "isHosted": false,
                "pillarId": "pillar/sport",
                "pillarName": "Sport"
            },
            {
                "id": "sport/ng-interactive/2022/feb/18/david-squires-on-australian-football-feuds",
                "type": "interactive",
                "sectionId": "sport",
                "sectionName": "Sport",
                "webPublicationDate": "2022-02-17T16:30:41Z",
                "webTitle": "David Squires on … Australian football feuds",
                "webUrl": "https://www.theguardian.com/sport/ng-interactive/2022/feb/18/david-squires-on-australian-football-feuds",
                "apiUrl": "https://content.guardianapis.com/sport/ng-interactive/2022/feb/18/david-squires-on-australian-football-feuds",
                "isHosted": false,
                "pillarId": "pillar/sport",
                "pillarName": "Sport"
            },
            {
                "id": "football/ng-interactive/2022/may/26/david-squires-on-what-football-can-learn-from-an-election",
                "type": "interactive",
                "sectionId": "football",
                "sectionName": "Football",
                "webPublicationDate": "2022-05-26T17:30:10Z",
                "webTitle": "David Squires on … what football can learn from an election",
                "webUrl": "https://www.theguardian.com/football/ng-interactive/2022/may/26/david-squires-on-what-football-can-learn-from-an-election",
                "apiUrl": "https://content.guardianapis.com/football/ng-interactive/2022/may/26/david-squires-on-what-football-can-learn-from-an-election",
                "isHosted": false,
                "pillarId": "pillar/sport",
                "pillarName": "Sport"
            },
            {
                "id": "football/2022/may/26/the-fiver-nottingham-forest-huddersfield-championship-playoff-final",
                "type": "article",
                "sectionId": "football",
                "sectionName": "Football",
                "webPublicationDate": "2022-05-26T15:04:31Z",
                "webTitle": "The Fiver | Nottingham Forest, Huddersfield and ‘the most lucrative fixture in football’",
                "webUrl": "https://www.theguardian.com/football/2022/may/26/the-fiver-nottingham-forest-huddersfield-championship-playoff-final",
                "apiUrl": "https://content.guardianapis.com/football/2022/may/26/the-fiver-nottingham-forest-huddersfield-championship-playoff-final",
                "isHosted": false,
                "pillarId": "pillar/sport",
                "pillarName": "Sport"
            },
            {
                "id": "football/2022/may/25/fifa-criticised-after-clearing-womens-football-coach-of-sexual-harassment-diego-guacci-argentina-fifpro",
                "type": "article",
                "sectionId": "football",
                "sectionName": "Football",
                "webPublicationDate": "2022-05-25T10:50:21Z",
                "webTitle": "Fifa criticised after clearing women’s football coach of sexual harassment ",
                "webUrl": "https://www.theguardian.com/football/2022/may/25/fifa-criticised-after-clearing-womens-football-coach-of-sexual-harassment-diego-guacci-argentina-fifpro",
                "apiUrl": "https://content.guardianapis.com/football/2022/may/25/fifa-criticised-after-clearing-womens-football-coach-of-sexual-harassment-diego-guacci-argentina-fifpro",
                "isHosted": false,
                "pillarId": "pillar/sport",
                "pillarName": "Sport"
            }
        ]
    }
}